{
  "variants": {
    "axis=x": {
      "model": "mgsone_colab:block/lavanda_tree_wood",
      "x": 90,
      "y": 90
    },
    "axis=y": {
      "model": "mgsone_colab:block/lavanda_tree_wood"
    },
    "axis=z": {
      "model": "mgsone_colab:block/lavanda_tree_wood",
      "x": 90
    }
  }
}