{
  "variants": {
    "powered=false": {
      "model": "mgsone_colab:block/sakura_pressure_plate"
    },
    "powered=true": {
      "model": "mgsone_colab:block/sakura_pressure_plate_down"
    }
  }
}