{
  "_fv": 24,
  "_type": "tag",
  "definition": {
    "type": "Items",
    "items": [
      {
        "value": "CUSTOM:Lavanda_treeWood"
      },
      {
        "value": "CUSTOM:Lavanda_treeLog"
      }
    ],
    "blocks": [],
    "functions": [],
    "entities": [],
    "name": "lavanda_tree_log",
    "namespace": "forge"
  }
}