{
  "parent": "block/slab_top",
  "textures": {
    "bottom": "mgsone_colab:blocks/lavanda_tree_planks",
    "top": "mgsone_colab:blocks/lavanda_tree_planks",
    "side": "mgsone_colab:blocks/lavanda_tree_planks"
  }
}