{
  "parent": "block/cube_bottom_top",
  "textures": {
    "bottom": "mgsone_colab:blocks/sakura_planks",
    "top": "mgsone_colab:blocks/sakura_planks",
    "side": "mgsone_colab:blocks/sakura_planks"
  }
}