{
  "type": "minecraft:crafting_shaped",
  "pattern": [
    "0",
    "1"
  ],
  "key": {
    "0": {
      "item": "mgsone_colab:lavanda_tree_planks"
    },
    "1": {
      "item": "mgsone_colab:lavanda_tree_planks"
    }
  },
  "result": {
    "item": "minecraft:stick",
    "count": 4
  }
}